<?xml version="1.0" encoding="utf-8"?>
<!-- Generator: Adobe Illustrator 21.0.0, SVG Export Plug-In . SVG Version: 6.00 Build 0)  -->
<svg version="1.1" id="Layer_1" xmlns="http://www.w3.org/2000/svg" xmlns:xlink="http://www.w3.org/1999/xlink" x="0px" y="0px"
	 viewBox="0 0 3202.3 1312.3" style="enable-background:new 0 0 3202.3 1312.3;" xml:space="preserve">
<style type="text/css">
	.st0{fill-rule:evenodd;clip-rule:evenodd;fill:#BF2026;}
	.st1{fill:#FFFFFF;stroke:#FFFFFF;stroke-width:4;stroke-miterlimit:10;}
	.st2{fill:#1480BE;}
	.st3{fill:#1280BE;}
</style>
<g>
	<g>
		<g>
			<polygon class="st0" points="403.2,579.7 506.8,967.7 616.5,579.7 780.8,579.7 591.2,1140.5 420.4,1140.5 245.7,579.7 
				403.2,579.7 			"/>
			<path class="st0" d="M1210.4,579.7v116.4c69.3,0,138.5,0,207.8,0c61.6,2.7,59.1,96,0,100.8c-70.6-0.7-141.3-1.4-211.9-2.1v345.6
				h154.3V916.3H1482c158.8-14.6,190.6-277.2,9.5-336.6H1210.4L1210.4,579.7z"/>
			<polygon class="st0" points="806.2,579.7 960.5,579.7 960.5,807.2 1155.9,807.2 1155.9,932.7 960.5,932.7 960.5,1140.9 
				806.2,1140.9 806.2,579.7 			"/>
		</g>
	</g>
	<g>
		<g>
			<path class="st1" d="M1641,963.7c0-87.4,67.1-150,157.5-150c36.4,0,68.4,9.6,93.7,27.6c15,10.7,15.9,32.8,2.4,45.3l0,0
				c-10.6,9.7-26.3,10-37.9,1.6c-15.9-11.4-34.2-17.3-54.8-17.3c-54.3,0-92.8,38.1-92.8,92.8c0,54.7,38.5,92.8,92.8,92.8
				c20.6,0,39-5.9,54.8-17.5c11.7-8.5,27.5-8.3,38.1,1.5v0c13.5,12.5,12.7,34.5-2.3,45.2c-25.3,18.2-57.6,27.9-94.4,27.9
				C1708.1,1113.7,1641,1051.1,1641,963.7z"/>
			<path class="st1" d="M1990.2,818.6h12.4c15.1,0,27.3,12.2,27.3,27.3v180.7c0,15.1,12.2,27.3,27.3,27.3h90.7
				c15.1,0,27.3,12.2,27.3,27.3l0,0c0,15.1-12.2,27.3-27.3,27.3h-157.9c-15.1,0-27.3-12.2-27.3-27.3V846
				C1962.9,830.9,1975.1,818.6,1990.2,818.6z"/>
			<path class="st1" d="M2189.9,963.7c0-86.2,67.1-150,158.7-150c91.2,0,158.7,63.4,158.7,150c0,86.6-67.5,150-158.7,150
				C2257.1,1113.7,2189.9,1049.8,2189.9,963.7z M2439.4,963.7c0-55.1-39-92.8-90.7-92.8c-51.8,0-90.7,37.7-90.7,92.8
				c0,55.1,39,92.8,90.7,92.8C2400.4,1056.5,2439.4,1018.8,2439.4,963.7z"/>
			<path class="st1" d="M2555.3,981.1V851.8c0-18.3,14.8-33.1,33.1-33.1h0.8c18.3,0,33.1,14.8,33.1,33.1v126.8
				c0,55.1,24,77.9,64.6,77.9c41,0,64.6-22.8,64.6-77.9V851.8c0-18.3,14.8-33.1,33.1-33.1l0,0c18.3,0,33.1,14.8,33.1,33.1v129.3
				c0,85.4-48.9,132.6-131.3,132.6C2604.2,1113.7,2555.3,1066.4,2555.3,981.1z"/>
			<path class="st1" d="M2884.3,854.5c0-19.8,16-35.8,35.8-35.8h95.9c94.9,0,159.9,57.2,159.9,145c0,87.8-65.1,145-159.9,145h-95.9
				c-19.8,0-35.8-16-35.8-35.8V854.5z M3012.7,1053.6c57.6,0,95.3-34.4,95.3-89.9c0-55.5-37.7-89.9-95.3-89.9h-25.5
				c-19.8,0-35.8,16-35.8,35.8v108.2c0,19.8,16,35.8,35.8,35.8H3012.7z"/>
		</g>
		<g>
			<g>
				<path class="st2" d="M1799.4,813.9c36.4,0,68.3,9.6,93.6,27.5c15,10.7,15.9,32.7,2.4,45.2l0,0c-5.5,5.1-12.5,7.6-19.6,7.6
					c-6.4,0-12.8-2-18.3-6c-15.8-11.4-34.1-17.3-54.7-17.3c-54.2,0-92.7,38.1-92.7,92.7c0,54.6,38.5,92.7,92.7,92.7
					c20.6,0,38.9-5.9,54.7-17.4c5.5-4,12-6.1,18.4-6.1c7.1,0,14,2.5,19.6,7.6v0c13.5,12.4,12.6,34.4-2.3,45.1
					c-25.3,18.2-57.5,27.9-94.2,27.9c-89.8,0-156.8-62.5-156.8-149.8C1642.1,876.4,1709.2,813.9,1799.4,813.9 M1799.4,786.4
					c-50.8,0-97.5,17.6-131.3,49.7c-34.4,32.6-53.4,77.9-53.4,127.6c0,49.7,18.9,95,53.3,127.6c33.8,32,80.3,49.7,131,49.7
					c42.1,0,80.2-11.4,110.3-33c13.7-9.8,22.1-25.2,23.1-42.1c1.1-17.2-5.6-33.8-18.3-45.5c-10.4-9.6-24-14.9-38.2-14.9
					c-12.5,0-24.4,3.9-34.7,11.4c-11.2,8.2-23.8,12.1-38.5,12.1c-39,0-65.2-26.2-65.2-65.2s26.2-65.2,65.2-65.2
					c14.7,0,27.4,4,38.7,12.1c10.2,7.3,22,11.2,34.4,11.2c14.2,0,27.8-5.3,38.3-14.9l0,0l0,0c12.7-11.7,19.3-28.4,18.2-45.7
					c-1.1-17-9.6-32.3-23.4-42.1C1878.8,797.7,1841,786.4,1799.4,786.4L1799.4,786.4z"/>
			</g>
			<g>
				<path class="st2" d="M2003.3,818.9c15.1,0,27.3,12.2,27.3,27.3v180.4c0,15.1,12.2,27.3,27.3,27.3h90.6
					c15.1,0,27.3,12.2,27.3,27.3v0c0,15.1-12.2,27.3-27.3,27.3h-157.6c-15.1,0-27.3-12.2-27.3-27.3v-235c0-15.1,12.2-27.3,27.3-27.3
					H2003.3 M2003.3,791.4h-12.4c-30.2,0-54.8,24.6-54.8,54.8v235c0,30.2,24.6,54.8,54.8,54.8h157.6c30.2,0,54.8-24.6,54.8-54.8
					c0-30.2-24.6-54.8-54.8-54.8h-90.4l0-180.2C2058.1,815.9,2033.5,791.4,2003.3,791.4L2003.3,791.4z"/>
			</g>
			<g>
				<path class="st2" d="M2348.7,813.9c91,0,158.5,63.3,158.5,149.8c0,86.5-67.4,149.8-158.5,149.8c-91.4,0-158.5-63.7-158.5-149.8
					S2257.3,813.9,2348.7,813.9 M2348.7,1056.3c51.7,0,90.6-37.6,90.6-92.7c0-55-38.9-92.7-90.6-92.7c-51.7,0-90.6,37.7-90.6,92.7
					C2258.1,1018.7,2297,1056.3,2348.7,1056.3 M2348.7,786.4c-51.2,0-98.3,17.8-132.4,50.1c-34.5,32.7-53.5,77.8-53.5,127.1
					s19,94.4,53.5,127.1c34.2,32.3,81.2,50.1,132.4,50.1c51.1,0,98.1-17.7,132.2-50c34.6-32.7,53.7-77.9,53.7-127.3
					c0-49.4-19.1-94.6-53.7-127.3C2446.8,804.1,2399.8,786.4,2348.7,786.4L2348.7,786.4z M2348.7,1028.8
					c-37.7,0-63.1-26.2-63.1-65.2s25.4-65.2,63.1-65.2c37.7,0,63.1,26.2,63.1,65.2S2386.5,1028.8,2348.7,1028.8L2348.7,1028.8z"/>
			</g>
			<g>
				<path class="st2" d="M2784.3,818.9c18.3,0,33.1,14.8,33.1,33.1V981c0,85.2-48.8,132.4-131.2,132.4
					c-82.3,0-131.1-47.2-131.1-132.4V852c0-18.3,14.8-33.1,33.1-33.1h0.8c18.3,0,33.1,14.8,33.1,33.1v126.6c0,55,24,77.8,64.5,77.8
					c41,0,64.5-22.8,64.5-77.8V852C2751.2,833.7,2766,818.9,2784.3,818.9 M2784.3,791.4c-33.4,0-60.6,27.2-60.6,60.6v126.6
					c0,46.4-17.5,50.3-37,50.3c-14.8,0-37,0-37-50.3V852c0-33.4-27.2-60.6-60.6-60.6h-0.8c-33.4,0-60.6,27.2-60.6,60.6V981
					c0,49,14.8,89.7,42.8,117.6c27.7,27.7,67.8,42.3,115.9,42.3c48.1,0,88.2-14.6,115.9-42.3c28-27.9,42.8-68.6,42.8-117.6V852
					C2844.9,818.5,2817.7,791.4,2784.3,791.4L2784.3,791.4z"/>
			</g>
			<g>
				<path class="st2" d="M3015.1,818.9c94.7,0,159.7,57.1,159.7,144.8c0,87.7-65,144.8-159.7,144.8h-95.8c-19.8,0-35.8-16-35.8-35.8
					v-218c0-19.8,16-35.8,35.8-35.8H3015.1 M2986.4,1053.4h25.5c57.5,0,95.2-34.3,95.2-89.8c0-55.4-37.6-89.8-95.2-89.8h-25.5
					c-19.8,0-35.8,16-35.8,35.8v108C2950.6,1037.4,2966.6,1053.4,2986.4,1053.4 M3015.1,791.4h-95.8c-34.9,0-63.3,28.4-63.3,63.3
					v218c0,34.9,28.4,63.3,63.3,63.3h95.8c53.6,0,99.9-16.1,133.8-46.6c17.2-15.4,30.5-34,39.6-55.3c9.2-21.5,13.8-45.2,13.8-70.4
					c0-25.3-4.7-49-13.8-70.4c-9.1-21.3-22.4-39.9-39.6-55.3C3115,807.5,3068.7,791.4,3015.1,791.4L3015.1,791.4z M2986.4,1025.9
					c-4.6,0-8.3-3.7-8.3-8.3v-108c0-4.6,3.7-8.3,8.3-8.3h25.5c43,0,67.7,22.7,67.7,62.3c0,39.6-24.7,62.3-67.7,62.3H2986.4
					L2986.4,1025.9z"/>
			</g>
		</g>
	</g>
	<path class="st3" d="M79.2,811.1c0-179,112.5-331.8,270.2-392.4C387.5,225.2,558,79.2,762.7,79.2c210.5,0,384.9,154.5,416.2,356.2
		c50.3-36.3,112.1-57.7,179-57.7c116.5,0,217.9,65.1,269.6,160.9c46.1-21.1,97.3-32.9,151.3-32.9c179,0,327.7,129.3,358,299.5
		c0,0,0.1-0.1,0.1-0.1c1.2-1.2,2.4-2.3,3.6-3.5c48.1-56.4,122.2-91.3,208.3-91.3c20.4,0,40.1,2,59,5.8c-8.6-4.8-17.5-9.2-26.6-13
		c-35.8-15.1-73.8-22.8-112.9-22.8c-28.5,0-56.5,4.1-83.5,12.2c-26.9-61.7-67.9-117.1-120-161.2c-39.1-33.1-83.2-59-131.1-76.9
		c-49.5-18.5-101.7-27.9-155-27.9c-41.1,0-81.2,5.5-120,16.4c-72.4-90.5-182.5-144.5-300.9-144.5c-44.2,0-87.4,7.4-128.2,21.8
		c-29.4-76-77.2-144.4-139.8-198.5c-44.5-38.5-94.8-68.5-149.6-89.3C883.5,10.9,823.8,0,762.7,0c-59.4,0-117.6,10.3-172.9,30.7
		c-53.4,19.7-102.8,48.2-146.8,84.8c-43.6,36.3-80.5,79.2-109.6,127.8c-22.4,37.3-39.6,77-51.6,118.5
		c-31.9,15.5-62.1,34.4-90.1,56.4c-39,30.6-73.1,66.6-101.5,107.2C31.2,609.7,0,708.8,0,812c0,67.5,13.2,133,39.4,194.8
		c25.2,59.6,61.3,113.1,107.2,159c45.9,45.9,99.4,82,159,107.2c61.7,26.1,127.3,39.4,194.8,39.4
		C500.4,1312.3,79.2,1234.9,79.2,811.1z"/>
</g>
</svg>
